…
### `nest()`

`countries` is a simplified version of `dcldata::gm_countries`, which contains Gapminder data on 197 countries.


```r
countries <-
  gm_countries %>% 
  select(name, region_gm4, un_status, un_admission, income_wb_2017)

countries
#> # A tibble: 197 × 5
#>   name                region_gm4 un_status un_admission income_wb_2017     
#>   <chr>               <chr>      <chr>     <date>       <chr>              
#> 1 Afghanistan         asia       member    1946-11-19   Low income         
#> 2 Albania             europe     member    1955-12-14   Upper middle income
#> 3 Algeria             africa     member    1962-10-08   Upper middle income
#> 4 Andorra             europe     member    1993-07-28   High income        
#> 5 Angola              africa     member    1976-12-01   Lower middle income
#> 6 Antigua and Barbuda americas   member    1981-11-11   High income        
#> # … with 191 more rows
```

The tidyr function `nest()` creates list columns of tibbles. 

<img src="images/list-columns/tibble-list-col-tibbles.png" width="915" style="display: block; margin: auto;" />

Pass `nest()` the names of the columns to put into each individual tibble. `nest()` will create one row for each unique value of the remaining variables. For example, say we select just two columns from `countries`


```r
countries %>% 
  select(region_gm4, name) 
#> # A tibble: 197 × 2
#>   region_gm4 name               
#>   <chr>      <chr>              
#> 1 asia       Afghanistan        
#> 2 europe     Albania            
#> 3 africa     Algeria            
#> 4 europe     Andorra            
#> 5 africa     Angola             
#> 6 americas   Antigua and Barbuda
#> # … with 191 more rows
```
…
`nest()` created one tibble for each `region_gm4`.

<img src="images/list-columns/regions.png" width="1182" style="display: block; margin: auto;" />

Each of these tibbles contains all the countries that belong to the continent.


```r
regions$countries[[1]]
#> # A tibble: 59 × 1
#>   name       
#>   <chr>      
#> 1 Afghanistan
#> 2 Australia  
#> 3 Bahrain    
#> 4 Bangladesh 
#> 5 Bhutan     
#> 6 Brunei     
#> # … with 53 more rows
```
…
regions_data
#> # A tibble: 4 × 2
#>   region_gm4 data             
#>   <chr>      <list>           
#> 1 asia       <tibble [59 × 4]>
#> 2 europe     <tibble [49 × 4]>
#> 3 africa     <tibble [54 × 4]>
#> 4 americas   <tibble [35 × 4]>
```


```r
regions_data$data[[1]]
#> # A tibble: 59 × 4
#>   name        un_status un_admission income_wb_2017     
#>   <chr>       <chr>     <date>       <chr>              
#> 1 Afghanistan member    1946-11-19   Low income         
#> 2 Australia   member    1945-11-01   High income        
#> 3 Bahrain     member    1971-09-21   High income        
#> 4 Bangladesh  member    1974-09-17   Lower middle income
#> 5 Bhutan      member    1971-09-21   Lower middle income
#> 6 Brunei      member    1984-09-21   High income        
#> # … with 53 more rows
```
…
```r
typeof(countries_collapsed$countries[[1]])
#> [1] "character"
```

What if we want to manipulate each vector before creating the list column? For example, say we want to arrange all country names alphabetically. The following doesn't work:


```r
countries %>% 
  group_by(region_gm4) %>% 
  summarize(countries = sort(name))
#> # A tibble: 197 × 2
#> # Groups:   region_gm4 [4]
#>   region_gm4 countries   
#>   <chr>      <chr>       
#> 1 africa     Algeria     
#> 2 africa     Angola      
#> 3 africa     Benin       
#> 4 africa     Botswana    
#> 5 africa     Burkina Faso
#> 6 africa     Burundi     
#> # … with 191 more rows
```
…
### `mutate()`

The third way to create a list column is use to `rowwise()` and `mutate()`. For example, the following creates a list column where the element for each country is a vector of random numbers.


```r
countries %>% 
  select(name) %>% 
  rowwise() %>% 
  mutate(random = list(rnorm(n = str_length(name)))) %>% 
  ungroup()
#> # A tibble: 197 × 2
#>   name                random    
#>   <chr>               <list>    
#> 1 Afghanistan         <dbl [11]>
#> 2 Albania             <dbl [7]> 
#> 3 Algeria             <dbl [7]> 
#> 4 Andorra             <dbl [7]> 
#> 5 Angola              <dbl [6]> 
#> 6 Antigua and Barbuda <dbl [19]>
#> # … with 191 more rows
```
…
Supply the `cols` argument of `unnest()` with the name of the columns to unnest.


```r
regions %>% 
  unnest(cols = countries)
#> # A tibble: 197 × 2
#>   region_gm4 name       
#>   <chr>      <chr>      
#> 1 asia       Afghanistan
#> 2 asia       Australia  
#> 3 asia       Bahrain    
#> 4 asia       Bangladesh 
#> 5 asia       Bhutan     
#> 6 asia       Brunei     
#> # … with 191 more rows
```
…
