11 Other purrr functions | Functional Programming
…
x %>% 
  keep(~ length(.) == 2)
#> $a
#> [1] 1 2
#> 
#> $c
#> [1] "a" "z"

With tibbles, you can use keep() and discard() to select columns that meet a certain condition.

mpg %>% 
  keep(is.numeric)
#> # A tibble: 234 × 5
#>   displ  year   cyl   cty   hwy
#>   <dbl> <int> <int> <int> <int>
#> 1   1.8  1999     4    18    29
#> 2   1.8  1999     4    21    29
#> 3   2    2008     4    20    31
#> 4   2    2008     4    21    30
#> 5   2.8  1999     6    16    26
#> 6   2.8  1999     6    18    26
#> # … with 228 more rows
…
