14 Tidy evaluation | Functional Programming
…
x
#> [1] 2

or inside.

log(x) == log(2)
#> [1] TRUE

Because log() evaluates its arguments, it figures out what x refers to before operating on x. In our example, log() figures out that x refers to 2, and then takes the log of 2. For a function like log(), evaluating its argument seems like an obviously good idea. It would be meaningless to take the log of the letter “x”. Sometimes, however, functions don’t want to evaluate their arguments.
Let’s find out if dplyr functions use evaluated arguments. Here’s a dplyr function.

mpg %>% 
  select(cty)
#> # A tibble: 234 x 1
#>     cty
#>   <int>
#> 1    18
#> 2    21
#> 3    20
#> 4    21
#> 5    16
#> 6    18
#> # … with 228 more rows
…
No. R doesn’t know what cty refers to, because cty, unlike x, doesn’t exist in the global environment. It only exists as an element of mpg.

To make this point even more explicit, let’s assign a number to cty.

cty <- 3

cty
#> [1] 3

Now, cty evaluates to 3 outside select(), but select(cty) still works as expected.

mpg %>% 
  select(cty)
#> # A tibble: 234 x 1
#>     cty
#>   <int>
#> 1    18
#> 2    21
#> 3    20
#> 4    21
#> 5    16
#> 6    18
#> # … with 228 more rows
…
  df %>% 
    group_by(!! group_var) %>% 
    summarize(mean = mean(!! summarize_var))
}

grouped_mean(
  df = mpg, 
  group_var = quo(manufacturer), 
  summarize_var = quo(cty)
)
#> <quosure>
#> expr: ^manufacturer
#> env:  global
#> # A tibble: 15 x 2
#>   manufacturer  mean
#>   <chr>        <dbl>
#> 1 audi          17.6
#> 2 chevrolet     15  
#> 3 dodge         13.1
#> 4 ford          14  
#> 5 honda         24.4
#> 6 hyundai       18.6
#> # … with 9 more rows
…
Now, we can rewrite grouped_mean().

grouped_mean <- function(df, group_var, summary_var) {
  group_var <- enquo(group_var)
  summary_var <- enquo(summary_var)

  df %>% 
    group_by(!! group_var) %>% 
    summarize(mean = mean(!! summary_var))
}

grouped_mean(df = mpg, group_var = manufacturer, summary_var = cty)
#> # A tibble: 15 x 2
#>   manufacturer  mean
#>   <chr>        <dbl>
#> 1 audi          17.6
#> 2 chevrolet     15  
#> 3 dodge         13.1
#> 4 ford          14  
#> 5 honda         24.4
#> 6 hyundai       18.6
#> # … with 9 more rows

You can use this same technique for any of the dplyr verbs.

filter_var <- function(var, value) {
  var <- enquo(var)
  
  mpg %>% 
    filter(!! var == value)
}

filter_var(class, "minivan")
#> # A tibble: 11 x 11
#>   manufacturer model  displ  year   cyl trans drv     cty   hwy fl    class
#>   <chr>        <chr>  <dbl> <int> <int> <chr> <chr> <int> <int> <chr> <chr>
#> 1 dodge        carav…   2.4  1999     4 auto… f        18    24 r     mini…
#> 2 dodge        carav…   3    1999     6 auto… f        17    24 r     mini…
#> 3 dodge        carav…   3.3  1999     6 auto… f        16    22 r     mini…
#> 4 dodge        carav…   3.3  1999     6 auto… f        16    22 r     mini…
#> 5 dodge        carav…   3.3  2008     6 auto… f        17    24 r     mini…
#> 6 dodge        carav…   3.3  2008     6 auto… f        17    24 r     mini…
#> # … with 5 more rows
…
14.2.2 Passing ...

Say you want to extend grouped_mean() so that you can group by any number of variables. You might have noticed that some functions, like scoped verbs and the purrr functions, take ... as a final argument, allowing you to specify additional arguments. We can use that same functionality here.

grouped_mean_2 <- function(df, summary_var, ...) {
  summary_var <- enquo(summary_var)
  
  df %>% 
    group_by(...) %>% 
    summarize(mean = mean(!! summary_var))
}

grouped_mean_2(df = mpg, summary_var = cty, manufacturer, model)
#> # A tibble: 38 x 3
#> # Groups:   manufacturer [15]
#>   manufacturer model               mean
#>   <chr>        <chr>              <dbl>
#> 1 audi         a4                  18.9
#> 2 audi         a4 quattro          17.1
#> 3 audi         a6 quattro          16  
#> 4 chevrolet    c1500 suburban 2wd  12.8
#> 5 chevrolet    corvette            15.4
#> 6 chevrolet    k1500 tahoe 4wd     12.5
#> # … with 32 more rows

Notice that with …, we didn’t have to use enquo() or !!. ... takes care of all the quoting and unquoting for you.

You can also use ... to pass in full expressions to dplyr verbs.

filter_fun <- function(df, summary_var, ...) {
  summarize_var <- enquo(summary_var)
  
  df %>% 
    filter(...) 
}

filter_fun(mpg, manufacturer == "audi", model == "a4")
#> # A tibble: 7 x 11
#>   manufacturer model displ  year   cyl trans  drv     cty   hwy fl    class
#>   <chr>        <chr> <dbl> <int> <int> <chr>  <chr> <int> <int> <chr> <chr>
#> 1 audi         a4      1.8  1999     4 auto(… f        18    29 p     comp…
#> 2 audi         a4      1.8  1999     4 manua… f        21    29 p     comp…
#> 3 audi         a4      2    2008     4 manua… f        20    31 p     comp…
#> 4 audi         a4      2    2008     4 auto(… f        21    30 p     comp…
#> 5 audi         a4      2.8  1999     6 auto(… f        16    26 p     comp…
#> 6 audi         a4      2.8  1999     6 manua… f        18    26 p     comp…
#> # … with 1 more row
…
  df %>% 
    group_by(!! group_var) %>% 
    summarize(!! summary_name := mean(!! summary_var))
}

grouped_mean(
  df = mpg, 
  group_var = manufacturer, 
  summary_var = hwy, 
  summary_name = mean_hwy
)
#> # A tibble: 15 x 2
#>   manufacturer mean_hwy
#>   <chr>           <dbl>
#> 1 audi             26.4
#> 2 chevrolet        21.9
#> 3 dodge            17.9
#> 4 ford             19.4
#> 5 honda            32.6
#> 6 hyundai          26.9
#> # … with 9 more rows

Success!!

14.3 Passing vectors with !!!

Here’s one more common tidy evaluation use case.

Say you want to use recode() to recode a variable.

mpg %>% 
  mutate(drv = recode(drv, "f" = "front", "r" = "rear", "4" = "four")) %>% 
  select(drv)
#> # A tibble: 234 x 1
#>   drv  
#>   <chr>
#> 1 front
#> 2 front
#> 3 front
#> 4 front
#> 5 front
#> 6 front
#> # … with 228 more rows
…
recode(), like group_by(), summarize(), and the other dplyr functions, quotes its input. We therefore need to tell recode() to evaluate recode_key immediately. Let’s try !!.

mpg %>% 
  mutate(drv = recode(drv, !! drv_recode)) %>% 
  select(drv)
#> Argument 2 must be named, not unnamed

!! doesn’t work because recode_key is a vector. Not only do we need to immediately evaluate recode_key, we also need to unpack its contents. To do so, we’ll use !!!.

mpg %>% 
  mutate(drv = recode(drv, !!! drv_recode)) %>% 
  select(drv)
#> # A tibble: 234 x 1
#>   drv  
#>   <chr>
#> 1 front
#> 2 front
#> 3 front
#> 4 front
#> 5 front
#> 6 front
#> # … with 228 more rows
…
